Taller de R: Estadística y programación
…
- Donde `y` es la variable dependiente o explicada y `x1`..`xn` son las variables independientes o explicativas. 

- Tanto `lm()` como `glm()` tienen otros argumentos que pueden ser explorados usando la opción `?lm` y `?glm`.

---
# Veamos un ejemplo (...)

```r
# Cargar datos
library(gapminder)
gapminder
```

```
## # A tibble: 1,704 x 6
##    country     continent  year lifeExp      pop gdpPercap
##    <fct>       <fct>     <int>   <dbl>    <int>     <dbl>
##  1 Afghanistan Asia       1952    28.8  8425333      779.
##  2 Afghanistan Asia       1957    30.3  9240934      821.
##  3 Afghanistan Asia       1962    32.0 10267083      853.
##  4 Afghanistan Asia       1967    34.0 11537966      836.
##  5 Afghanistan Asia       1972    36.1 13079460      740.
##  6 Afghanistan Asia       1977    38.4 14880372      786.
##  7 Afghanistan Asia       1982    39.9 12881816      978.
##  8 Afghanistan Asia       1987    40.8 13867957      852.
##  9 Afghanistan Asia       1992    41.7 16317921      649.
## 10 Afghanistan Asia       1997    41.8 22227415      635.
## # … with 1,694 more rows
```
…
<img src="intro-to-class_files/figure-html/unnamed-chunk-8-1.png" style="display: block; margin: auto;" />

---
# Valores predichos (...)

```r
# Veamos los valores predichos
data = gapminder %>% subset(gdpPercap <50000)
data$lifeExp_gorro = predict(object = ols,newdata=data)
data
```

```
## # A tibble: 1,698 x 7
##    country     continent  year lifeExp      pop gdpPercap lifeExp_gorro
##    <fct>       <fct>     <int>   <dbl>    <int>     <dbl>         <dbl>
##  1 Afghanistan Asia       1952    28.8  8425333      779.          52.9
##  2 Afghanistan Asia       1957    30.3  9240934      821.          53.0
##  3 Afghanistan Asia       1962    32.0 10267083      853.          53.0
##  4 Afghanistan Asia       1967    34.0 11537966      836.          53.0
##  5 Afghanistan Asia       1972    36.1 13079460      740.          52.9
##  6 Afghanistan Asia       1977    38.4 14880372      786.          52.9
##  7 Afghanistan Asia       1982    39.9 12881816      978.          53.1
##  8 Afghanistan Asia       1987    40.8 13867957      852.          53.0
##  9 Afghanistan Asia       1992    41.7 16317921      649.          52.8
## 10 Afghanistan Asia       1997    41.8 22227415      635.          52.8
## # … with 1,688 more rows
```
…
